TRAINEE01	29542251961585542956
TRAINEE02	26898031493741399212
TRAINEE03	14062439670367533453
TRAINEE04	21620758550045778767
TRAINEE05	19354171493360924270
TRAINEE06	16627042841238625774
TRAINEE07	24259085902201667791
TRAINEE08	32509619951735841898
TRAINEE09	08435163452912943435
TRAINEE10	11720110222709344539
TRAINEE11	30593392601804891194
TRAINEE12	27870521253927194554
