REPORT  ZVK1.
*Example of standard table
*INSERT IN STANDARD TABLE
DATA: ITDEPT1 TYPE TABLE OF Z104329DEPT
      WITH NON-UNIQUE DEFAULT KEY
      INITIAL SIZE 0.
DATA: WA1 TYPE Z104329DEPT.

DATA: ITDEPT2 TYPE TABLE OF Z104329DEPT
      WITH NON-UNIQUE DEFAULT KEY
      INITIAL SIZE 0.

PERFORM SELECTFROMDB.
PERFORM APPEND_TO_INTTABLE.

PERFORM DISP.

FORM SELECTFROMDB.
  SELECT * FROM Z104329DEPT INTO TABLE ITDEPT1.
ENDFORM.


FORM APPEND_TO_INTTABLE.
*1)
*APPEND INITIAL LINE TO ITDEPT1.
*  IF U SPECIFY APPEND INITAL LINE A BLANK LINE
*  IS INSERTED AT THE LAST


*2)  
 PERFORM ADDTOITDEPT2.
 APPEND LINES OF ITDEPT2 FROM 2 TO 4 TO ITDEPT1.
*    66, 77 AND 88 ARE APPENDED AT LAST

    ENDFORM.

FORM DISP.
  LOOP AT ITDEPT1 INTO WA1.
    WRITE :/ WA1-DEPTNO.
    WRITE :  WA1-DNAME.
    WRITE :  WA1-LOC.
  ENDLOOP.
ENDFORM.

FORM  ADDTOITDEPT2.
  WA1-DEPTNO = 55. WA1-DNAME  = '55'.WA1-LOC    ='55'.
  APPEND WA1 TO ITDEPT2.

  WA1-DEPTNO = 66. WA1-DNAME  = '66'. WA1-LOC    ='66'.
  APPEND WA1 TO ITDEPT2.

  WA1-DEPTNO = 77. WA1-DNAME  = '77'. WA1-LOC    ='77'.
  APPEND WA1 TO ITDEPT2.

  WA1-DEPTNO = 88. WA1-DNAME  = '88'. WA1-LOC    ='88'.
  APPEND WA1 TO ITDEPT2.

  WA1-DEPTNO = 99. WA1-DNAME  = '99'. WA1-LOC    ='99'.
  APPEND WA1 TO ITDEPT2.

ENDFORM.