REPORT  Z.
TYPES: BEGIN OF ITTYP ,  "initial size 4
         F1,
         F2,
         I  TYPE I,
       END OF ITTYP.

DATA : IT TYPE STANDARD TABLE OF ITTYP
       INITIAL SIZE 0 .
DATA : WA TYPE ITTYP .
PERFORM ADDTOTAB.
*SORT IT BY F2.
*SORT IT BY F1 F2.

*PERFORM DISP.

*PERFORM ATNEWF1SUM.
PERFORM ATNEWF2SUM.
*PERFORM ATNEWF1F2SUM.



FORM ADDTOTAB.
  WA-F1 = '1'. WA-F2 = 'A'. WA-I = 10. APPEND  WA TO IT.
  WA-F1 = '3'. WA-F2 = 'A'. WA-I = 20. APPEND  WA TO IT.
  WA-F1 = '1'. WA-F2 = 'B'. WA-I = 30. APPEND WA TO IT.
  WA-F1 = '2'. WA-F2 = 'B'. WA-I = 40. APPEND  WA TO IT.
  WA-F1 = '2'. WA-F2 = 'B'. WA-I = 50. APPEND  WA TO IT.
  WA-F1 = '1'. WA-F2 = 'A'. WA-I = 60. APPEND  WA TO IT.
  WA-F1 = '3'. WA-F2 = 'A'. WA-I = 70. APPEND  WA TO IT.
  WA-F1 = '1'. WA-F2 = 'B'. WA-I = 80. APPEND WA TO IT.
  WA-F1 = '2'. WA-F2 = 'A'. WA-I = 90. APPEND  WA TO IT.
  WA-F1 = '2'. WA-F2 = 'A'. WA-I = 100. APPEND  WA TO IT.
  WA-F1 = '3'. WA-F2 = 'B'. WA-I = 110. APPEND  WA TO IT.
  WA-F1 = '3'. WA-F2 = 'B'. WA-I = 120. APPEND  WA TO IT.
ENDFORM.

FORM ATNEWF1SUM.
  SORT IT BY F1.
  LOOP AT IT INTO WA.
    AT NEW F1.
      SUM.
      WRITE: /  'Total:', WA-F1 ,  WA-I.
    ENDAT.
  ENDLOOP.
ENDFORM.

FORM ATNEWF2SUM.
  SORT IT BY F2.
  LOOP AT IT INTO WA.
    AT NEW F2.
      SUM.
      WRITE: /  'Total:', WA-F1,  WA-F2 ,  WA-I.
    ENDAT.
  ENDLOOP.
ENDFORM.



FORM DISP.
  LOOP AT IT INTO WA .
    WRITE: /  WA-F1, WA-F2, WA-I.  "The output is 1 A, 3 A, 1 B, 2 B
  ENDLOOP.

ENDFORM.


FORM ATNEWF1F2SUM.
  SORT IT BY F1 F2.
  LOOP AT IT INTO WA.
    AT NEW F1.
      SUM.
      WRITE: /  'total:', WA-F1 ,  WA-I.
    ENDAT.
    AT NEW F2.
      SUM.
      WRITE: /  'total:', WA-F2 ,  WA-I.
    ENDAT.

    WRITE: /11 WA-F2, WA-I.
  ENDLOOP.
  FREE IT.


ENDFORM.