
start-of-selection.
       write: / 'Hello'.

At line-selection.
       write: / 'Hi'.
       write: / 'Sy-lsind'.


When the user double clicks on Hello, or clicks on the magnifying glass or presses f2 - Hi is displayed.


RREPORT  Z_VK4 NO STANDARD PAGE HEADING.
data: var1(8) type c value 'Red',
var2(8) type c value 'Blue',
var3(8) type c value 'Green'.

start-of-selection.
       write: / 'Hello'.
       write: / var1.

       write: / var2.

       write: / var3.

       write: / 'Sy-lsind:' , Sy-lsind.
       write: / 'Sy-pagno:' , Sy-pagno.
At line-selection.
       write : /'Yellow'.
       write : /'Pink'.
       write: / 'Hi'.
       write: / 'Sy-lsind:' , Sy-lsind.
       write: / 'Sy-lisel:' , Sy-lisel.
       write: / 'Sy-curow:' , Sy-curow.
       write: / 'Sy-cucol:' , Sy-cucol.
       write:/ 'sy-lilli:' ,sy-lilli.




