REPORT Z.
DATA VAR1 TYPE I VALUE 10.
DATA VAR2 TYPE I .
DATA VAR5 LIKE VAR2 VALUE 25. 
"DATA VAR5 TYPE VAR2 VALUE 25. "Cannot use type here 

______________________________________________

REPORT Z.
TYPES INTTYPE TYPE I. "cannot give value here
DATA VAR1 TYPE INTTYPE VALUE 30.
DATA VAR2 TYPE INTTYPE.
"DATA VAR2 LIKE INTTYPE."cannot use like here
VAR2 = 20.
