data: f1 value 'A',
      f2 value 'B',
      f3 value 'C'.

  perform: s1 changing f1 f2 f3.
*  perform: s1 using f1 f2 f3. 

*           s2 using f1 f2 f3.
  write :/ 'After invokation of s1:' , f1, f2, f3.

form s1 changing value(f1) value(f2) value(f3).

   
   
*   form s1 changing f1 f2 f3.
*   form s1 using p1 p2 p3.

   f1 = 'X'.    f2 = 'Y'.    f3 = 'Z'. 
*   p1 = 'X'.    p2 = 'Y'.    p3 = 'Z'. 

   write :/ 'In s1:' , f1, f2, f3.

  endform.

